<?xml version="1.0" encoding="UTF-8"?>
<svg width="68px" height="78px" viewBox="0 0 68 78" version="1.1" xmlns="http://www.w3.org/2000/svg" xmlns:xlink="http://www.w3.org/1999/xlink">
    <!-- Generator: Sketch 44.1 (41455) - http://www.bohemiancoding.com/sketch -->
    <title>Group</title>
    <desc>Created with Sketch.</desc>
    <defs></defs>
    <g id="Page-1" stroke="none" stroke-width="1" fill="none" fill-rule="evenodd">
        <g id="Group" fill-rule="nonzero">
            <path d="M21.1,45.7 L21.1,31.4 L34.1,23.6 L46.7,31.5 L46.7,45.4 L34.1,53.6 L21.1,45.7 Z M53.6,49.2 L53.6,27.8 L34.1,15.5 L14.1,27.6 L14.1,49.6 L34.1,61.8 L53.6,49.2 Z" id="Shape" fill="#35CA66"></path>
            <polygon id="Shape" fill="#3AD66E" points="21.1 45.7 21.1 31.5 34.1 23.7 34.2 23.8 34.2 15.6 34.1 15.5 14.1 27.6 14.1 49.6 34.1 61.7 34.2 61.6 34.2 53.6 34.1 53.7"></polygon>
            <g id="_1765879253184" transform="translate(22.000000, 0.000000)">
                <path d="M11.8,67.4 L11.8,77.4 L22.8,70.7 L22.8,60.7 L11.8,67.4 Z M0.7,60.7 L0.7,70.7 L11.7,77.4 L11.7,67.4 L0.7,60.7 Z" id="Shape" fill="#003233"></path>
                <polygon id="Shape" fill="#004C4D" points="11.8 67.4 0.7 60.7 0.7 70.7 11.8 77.4"></polygon>
                <path d="M11.8,10 L11.8,0 L22.8,6.7 L22.8,16.7 L11.8,10 Z M0.7,16.7 L0.7,6.7 L11.7,0 L11.7,10 L0.7,16.7 Z" id="Shape" fill="#003233"></path>
            </g>
            <polygon id="Shape" fill="#004C4D" points="33.8 10 22.7 16.7 22.7 6.7 33.8 0"></polygon>
            <path d="M58.8,52 L67.6,56.8 L67.1,43.9 L58.3,39.1 L58.8,52 Z M47.6,58.4 L56.4,63.2 L67.6,56.8 L58.8,52 L47.6,58.4 Z" id="Shape" fill="#003233"></path>
            <polygon id="Shape" fill="#004C4D" points="58.8 52 47.6 58.4 56.4 63.2 67.6 56.8"></polygon>
            <path d="M8.9,24.7 L0.2,19.9 L11.5,13.6 L20.2,18.5 L8.9,24.7 Z M9.4,37.6 L0.7,32.8 L0.2,19.9 L8.9,24.7 L9.4,37.6 Z" id="Shape" fill="#003233"></path>
            <polygon id="Shape" fill="#004C4D" points="8.9 24.7 9.4 37.6 0.7 32.7 0.2 19.8"></polygon>
            <path d="M8.8,52.6 L0.2,57.6 L0.4,44.7 L9,39.6 L8.8,52.6 Z M20.2,58.7 L11.6,63.7 L0.2,57.6 L8.8,52.6 L20.2,58.7 Z" id="Shape" fill="#003233"></path>
            <polygon id="Shape" fill="#004C4D" points="8.8 52.6 20.2 58.7 11.6 63.7 0.2 57.6"></polygon>
            <path d="M58.8,25 L67.6,20.3 L56.5,13.8 L47.7,18.5 L58.8,25 Z M58,37.9 L66.8,33.2 L67.6,20.3 L58.8,25 L58,37.9 Z" id="Shape" fill="#003233"></path>
            <polygon id="Shape" fill="#004C4D" points="58.8 25 58 37.9 66.9 33.2 67.6 20.3"></polygon>
        </g>
    </g>
</svg>